\relax 
\newlabel{ODE}{{1}{1}}
\newlabel{ODEvec}{{2}{1}}
\@writefile{lof}{\contentsline {figure}{\numberline {1}{\ignorespaces The figure shows a plot of the cosine function. The numerically found solution for the ODE (1\hbox {}) is plotted as red points. The theoretical solution cos(x), calculated from the math library, is plotted as a green line.}}{2}}
\newlabel{plot}{{1}{2}}
